…
### a.3. Total e proporção de eleitos por UF em 2014

``` r
data_freq_2014 <- data_freq_2014_origem %>%
  group_by(uf) %>%
  mutate(prop_eleitos = n_eleitos / sum(n_eleitos)) %>%
  ungroup()

data_freq_2014
```

    ## # A tibble: 54 x 4
    ##    uf    sexo  n_eleitos prop_eleitos
    ##    <fct> <fct>     <int>        <dbl>
    ##  1 AC    f             1       0.125 
    ##  2 AL    f             0       0     
    ##  3 AM    f             1       0.125 
    ##  4 AP    f             3       0.375 
    ##  5 BA    f             3       0.0769
    ##  6 CE    f             2       0.0909
    ##  7 DF    f             1       0.125 
    ##  8 ES    f             0       0     
    ##  9 GO    f             2       0.118 
    ## 10 MA    f             1       0.0556
    ## # ... with 44 more rows

### a.4. Total e proporção de eleitos por UF em 2018

``` r
data_freq_2018 <- data_freq_2018_origem %>%
  group_by(uf) %>%
  mutate(prop_eleitos = n_eleitos / sum(n_eleitos)) %>%
  ungroup()

data_freq_2018
```

    ## # A tibble: 54 x 4
    ##    uf    sexo  n_eleitos prop_eleitos
    ##    <fct> <fct>     <int>        <dbl>
    ##  1 AC    f             4       0.5   
    ##  2 AL    f             1       0.111 
    ##  3 AM    f             0       0     
    ##  4 AP    f             3       0.375 
    ##  5 BA    f             3       0.0769
    ##  6 CE    f             1       0.0455
    ##  7 DF    f             5       0.625 
    ##  8 ES    f             3       0.3   
    ##  9 GO    f             2       0.118 
    ## 10 MA    f             0       0     
    ## # ... with 44 more rows
…
